<?xml version="1.0" encoding="utf-8"?>
<!-- Generator: Adobe Illustrator 15.0.0, SVG Export Plug-In . SVG Version: 6.00 Build 0)  -->
<!DOCTYPE svg PUBLIC "-//W3C//DTD SVG 1.1//EN" "http://www.w3.org/Graphics/SVG/1.1/DTD/svg11.dtd">
<svg version="1.1" xmlns="http://www.w3.org/2000/svg" xmlns:xlink="http://www.w3.org/1999/xlink" x="0px" y="0px"
	 width="132.375px" height="140.78px" viewBox="0 0 132.375 140.78" enable-background="new 0 0 132.375 140.78"
	 xml:space="preserve">
<g id="Calque_2">
</g>
<g id="Calque_1">
	<polygon fill="none" stroke="#000000" stroke-width="2" stroke-miterlimit="10" points="119.12,96.671 84.322,96.064 
		66.032,128.523 48.662,96.663 12.944,98.795 31.162,67.726 13.794,37.639 47.736,35.954 65.946,10.033 84.702,36.517 
		116.711,36.789 101.17,68.636 	"/>
	<line fill="none" stroke="#000000" stroke-width="2" stroke-miterlimit="10" x1="38.746" y1="51.194" x2="93.429" y2="51.194"/>
	<line fill="none" stroke="#000000" stroke-width="2" stroke-miterlimit="10" x1="37.811" y1="79.237" x2="95.298" y2="79.237"/>
	<polygon fill="#F4C80F" points="-39.082,99.801 -77.376,99.132 -97.505,134.855 -116.62,99.792 -155.927,102.138 -135.879,67.946 
		-154.993,34.835 -117.639,32.982 -97.599,4.456 -76.958,33.601 -41.732,33.901 -58.835,68.948 	"/>
	<ellipse fill="#F4C80F" cx="-153.824" cy="35.253" rx="5.842" ry="5.609"/>
	<ellipse fill="#F4C80F" cx="-41.917" cy="35.253" rx="5.842" ry="5.609"/>
	<ellipse fill="#F4C80F" cx="-153.824" cy="99.752" rx="5.842" ry="5.609"/>
	<ellipse fill="#F4C80F" cx="-41.917" cy="99.752" rx="5.842" ry="5.609"/>
	<ellipse fill="#F4C80F" cx="-97.972" cy="6.743" rx="5.842" ry="5.609"/>
	<ellipse fill="#F4C80F" cx="-97.972" cy="133.404" rx="5.842" ry="5.608"/>
	<g>
		<path d="M34.454,57.991c0.736-0.216,1.697-0.36,2.696-0.36c1.697,0,2.802,0.576,3.644,1.728c0.92,1.248,1.5,3.24,1.5,6.097
			c0,3.096-0.618,5.232-1.46,6.552c-0.934,1.417-2.368,2.088-4.104,2.088c-1.039,0-1.789-0.12-2.275-0.24V57.991z M36.453,71.168
			c0.171,0.072,0.46,0.072,0.697,0.072c1.828,0.024,3.025-1.8,3.025-5.665c0-3.36-1.079-5.137-2.815-5.137
			c-0.434,0-0.736,0.072-0.908,0.144V71.168z"/>
		<path d="M48.884,67.087h-3.262v3.84h3.644v3h-5.643V57.751h5.458v3h-3.459v3.36h3.262V67.087z"/>
		<path d="M52.423,60.823h-2.394v-3.072h6.813v3.072h-2.42v13.105h-1.999V60.823z"/>
		<path d="M63.183,67.087H59.92v3.84h3.644v3h-5.643V57.751h5.458v3H59.92v3.36h3.262V67.087z"/>
		<path d="M71.43,73.496c-0.355,0.312-1.197,0.696-2.262,0.696c-3.065,0-4.643-3.504-4.643-8.113c0-5.521,2.157-8.569,4.84-8.569
			c1.039,0,1.828,0.36,2.183,0.72l-0.421,2.88c-0.395-0.312-0.96-0.6-1.684-0.6c-1.578,0-2.814,1.752-2.814,5.352
			c0,3.241,1.052,5.281,2.828,5.281c0.618,0,1.276-0.216,1.684-0.528L71.43,73.496z"/>
		<path d="M74.667,60.823h-2.394v-3.072h6.813v3.072h-2.42v13.105h-1.999V60.823z"/>
		<path d="M82.164,57.751v16.177h-1.999V57.751H82.164z"/>
		<path d="M85.992,73.928l-2.841-16.177h2.197l1.079,6.84c0.302,1.944,0.579,3.769,0.789,5.785h0.04
			c0.224-1.944,0.5-3.864,0.802-5.712l1.131-6.913h2.131l-2.986,16.177H85.992z"/>
		<path d="M97.541,67.087h-3.262v3.84h3.644v3H92.28V57.751h5.458v3h-3.459v3.36h3.262V67.087z"/>
	</g>
</g>
</svg>
