<?xml version="1.0" encoding="utf-8"?>
<!-- Generator: Adobe Illustrator 15.0.0, SVG Export Plug-In . SVG Version: 6.00 Build 0)  -->
<!DOCTYPE svg PUBLIC "-//W3C//DTD SVG 1.1//EN" "http://www.w3.org/Graphics/SVG/1.1/DTD/svg11.dtd">
<svg version="1.1" id="Calque_1" xmlns="http://www.w3.org/2000/svg" xmlns:xlink="http://www.w3.org/1999/xlink" x="0px" y="0px"
	 width="841.89px" height="595.28px" viewBox="0 0 841.89 595.28" enable-background="new 0 0 841.89 595.28" xml:space="preserve">
<rect x="269.5" y="173" fill="#F31E2C" width="302.5" height="250"/>
<circle fill="#F7FCF9" cx="420.5" cy="298.5" r="120.5"/>
<polygon fill="#7BB4CE" points="551.148,316.254 566.852,300.359 570,297.175 543.264,297.175 543.264,300.359 543.334,319.666 
	541.499,319.584 538.25,333.416 570,333.74 566.691,330.357 "/>
<circle fill="none" stroke="#9E9E9E" stroke-width="3" stroke-miterlimit="10" cx="421" cy="298" r="120.833"/>
<circle fill="#9E9E9E" cx="421" cy="298" r="116"/>
<circle fill="#7BB4CE" cx="421" cy="298" r="98.333"/>
<circle fill="#F7FCF9" cx="421" cy="298" r="65.333"/>
<polygon fill="#E9EAEB" points="335,294.53 337.18,298.947 342.054,299.656 338.527,303.094 339.36,307.949 335,305.656 
	330.64,307.949 331.473,303.094 327.946,299.656 332.82,298.947 "/>
<polygon fill="#E9EAEB" points="508,294.53 510.18,298.947 515.055,299.656 511.527,303.094 512.359,307.949 508,305.656 
	503.641,307.949 504.473,303.094 500.945,299.656 505.82,298.947 "/>
<path fill="none" d="M342.33,301.336c0-43.446,35.22-78.667,78.667-78.667s78.667,35.22,78.667,78.667"/>
<text transform="matrix(0.2409 -0.9706 0.9706 0.2409 344.0103 284.873)"><tspan x="0" y="0" fill="#F7FCF9" font-family="'EurostileRegular'" font-size="21"> </tspan><tspan x="5.519" y="0.009" fill="#F7FCF9" font-family="'EurostileRegular'" font-size="21" rotate="4.049"> </tspan><tspan x="11.042" y="0.411" fill="#F7FCF9" font-family="'EurostileRegular'" font-size="21" rotate="8.11"> </tspan><tspan x="16.516" y="1.201" fill="#F7FCF9" font-family="'EurostileRegular'" font-size="21" rotate="12.16"> </tspan><tspan x="21.895" y="2.369" fill="#F7FCF9" font-family="'EurostileRegular'" font-size="21" rotate="16.178"> </tspan><tspan x="27.217" y="3.924" fill="#F7FCF9" font-family="'EurostileRegular'" font-size="21" rotate="20.212"> </tspan><tspan x="32.375" y="5.833" fill="#F7FCF9" font-family="'EurostileRegular'" font-size="21" rotate="24.203"> </tspan><tspan x="37.392" y="7.971" fill="#F7FCF9" font-family="'EurostileRegular'" font-size="21" rotate="29.845">s</tspan><tspan x="46.082" y="12.93" fill="#F7FCF9" font-family="'EurostileRegular'" font-size="21" rotate="37.387">h</tspan><tspan x="54.709" y="19.741" fill="#F7FCF9" font-family="'EurostileRegular'" font-size="21" rotate="42.881">i</tspan><tspan x="57.83" y="22.423" fill="#F7FCF9" font-family="'EurostileRegular'" font-size="21" rotate="48.375">n</tspan><tspan x="65.054" y="30.574" fill="#F7FCF9" font-family="'EurostileRegular'" font-size="21" rotate="56.239">e</tspan><tspan x="70.88" y="39.549" fill="#F7FCF9" font-family="'EurostileRegular'" font-size="21" rotate="62.148"> </tspan><tspan x="73.645" y="44.149" fill="#F7FCF9" font-family="'EurostileRegular'" font-size="21" rotate="69.496">&amp;</tspan><tspan x="78.542" y="58.076" fill="#F7FCF9" font-family="'EurostileRegular'" font-size="21" rotate="76.991"> </tspan><tspan x="79.902" y="63.315" fill="#F7FCF9" font-family="'EurostileRegular'" font-size="21" rotate="82.584">p</tspan><tspan x="81.221" y="74.044" fill="#F7FCF9" font-family="'EurostileRegular'" font-size="21" rotate="89.62">r</tspan><tspan x="81.34" y="82.521" fill="#F7FCF9" font-family="'EurostileRegular'" font-size="21" rotate="96.658">o</tspan><tspan x="80.073" y="93.136" fill="#F7FCF9" font-family="'EurostileRegular'" font-size="21" rotate="104.228">s</tspan><tspan x="77.634" y="102.841" fill="#F7FCF9" font-family="'EurostileRegular'" font-size="21" rotate="111.78">p</tspan><tspan x="73.635" y="112.824" fill="#F7FCF9" font-family="'EurostileRegular'" font-size="21" rotate="119.504">e</tspan><tspan x="68.324" y="122.064" fill="#F7FCF9" font-family="'EurostileRegular'" font-size="21" rotate="126.423">r</tspan></text>
<polygon fill="#E9EAEB" points="347.743,212.968 349.708,216.785 353.968,217.331 350.944,220.379 351.742,224.6 347.908,222.666 
	344.142,224.729 344.795,220.484 341.67,217.54 345.909,216.85 "/>
<polygon fill="#E9EAEB" points="363.743,200.968 365.708,204.785 369.968,205.331 366.944,208.379 367.742,212.6 363.908,210.666 
	360.142,212.729 360.795,208.484 357.67,205.54 361.909,204.85 "/>
<polygon fill="#E9EAEB" points="381.764,192.722 383.729,196.54 387.989,197.085 384.966,200.134 385.764,204.354 381.929,202.42 
	378.163,204.484 378.816,200.239 375.691,197.294 379.93,196.604 "/>
<polygon fill="#E9EAEB" points="400.764,185.722 402.729,189.54 406.989,190.085 403.966,193.134 404.764,197.354 400.929,195.42 
	397.163,197.484 397.816,193.239 394.691,190.294 398.93,189.604 "/>
<polygon fill="#E9EAEB" points="420.764,183.722 422.729,187.54 426.989,188.085 423.966,191.134 424.764,195.354 420.929,193.42 
	417.163,195.484 417.816,191.239 414.691,188.294 418.93,187.604 "/>
<polygon fill="#E9EAEB" points="441.764,185.722 443.729,189.54 447.989,190.085 444.966,193.134 445.764,197.354 441.93,195.42 
	438.162,197.484 438.816,193.239 435.691,190.294 439.93,189.604 "/>
<polygon fill="#E9EAEB" points="334.567,226.698 336.533,230.516 340.792,231.062 337.769,234.11 338.566,238.331 334.732,236.396 
	330.965,238.46 331.619,234.215 328.494,231.271 332.732,230.581 "/>
<polygon fill="#E9EAEB" points="324.567,243.698 326.533,247.516 330.792,248.062 327.769,251.11 328.566,255.331 324.732,253.396 
	320.965,255.46 321.619,251.215 318.494,248.271 322.732,247.581 "/>
<polygon fill="#E9EAEB" points="317.567,263.698 319.533,267.516 323.792,268.062 320.769,271.11 321.566,275.331 317.732,273.396 
	313.965,275.46 314.619,271.215 311.494,268.271 315.732,267.581 "/>
<polygon fill="#E9EAEB" points="494.74,212.968 492.775,216.785 488.516,217.331 491.539,220.379 490.742,224.6 494.575,222.666 
	498.342,224.729 497.688,220.484 500.813,217.54 496.574,216.85 "/>
<polygon fill="#E9EAEB" points="478.74,200.968 476.775,204.785 472.516,205.331 475.539,208.379 474.742,212.6 478.575,210.666 
	482.342,212.729 481.688,208.484 484.813,205.54 480.574,204.85 "/>
<polygon fill="#E9EAEB" points="460.719,192.722 458.754,196.54 454.494,197.085 457.518,200.134 456.72,204.354 460.555,202.42 
	464.32,204.484 463.667,200.239 466.793,197.294 462.554,196.604 "/>
<polygon fill="#E9EAEB" points="507.916,226.698 505.951,230.516 501.691,231.062 504.715,234.11 503.917,238.331 507.752,236.396 
	511.518,238.46 510.865,234.215 513.989,231.271 509.751,230.581 "/>
<polygon fill="#E9EAEB" points="517.916,243.698 515.951,247.516 511.691,248.062 514.715,251.11 513.917,255.331 517.752,253.396 
	521.518,255.46 520.865,251.215 523.989,248.271 519.751,247.581 "/>
<polygon fill="#E9EAEB" points="524.916,263.698 522.951,267.516 518.691,268.062 521.715,271.11 520.917,275.331 524.752,273.396 
	528.518,275.46 527.865,271.215 530.989,268.271 526.751,267.581 "/>
<polygon fill="#E9EAEB" points="347.743,382.214 349.708,378.396 353.968,377.851 350.944,374.803 351.742,370.582 347.908,372.516 
	344.142,370.453 344.795,374.697 341.67,377.642 345.909,378.332 "/>
<polygon fill="#E9EAEB" points="363.743,394.214 365.708,390.396 369.968,389.851 366.944,386.803 367.742,382.582 363.908,384.516 
	360.142,382.453 360.795,386.697 357.67,389.642 361.909,390.332 "/>
<polygon fill="#E9EAEB" points="381.764,402.46 383.729,398.643 387.989,398.096 384.966,395.047 385.764,390.827 381.929,392.762 
	378.163,390.697 378.816,394.943 375.691,397.887 379.93,398.577 "/>
<polygon fill="#E9EAEB" points="400.764,409.46 402.729,405.643 406.989,405.096 403.966,402.047 404.764,397.827 400.929,399.762 
	397.163,397.697 397.816,401.943 394.691,404.887 398.93,405.577 "/>
<polygon fill="#E9EAEB" points="420.764,411.46 422.729,407.643 426.989,407.096 423.966,404.047 424.764,399.827 420.929,401.762 
	417.163,399.697 417.816,403.943 414.691,406.887 418.93,407.577 "/>
<polygon fill="#E9EAEB" points="441.764,409.46 443.729,405.643 447.989,405.096 444.966,402.047 445.764,397.827 441.93,399.762 
	438.162,397.697 438.816,401.943 435.691,404.887 439.93,405.577 "/>
<polygon fill="#E9EAEB" points="334.567,368.483 336.533,364.666 340.792,364.12 337.769,361.071 338.566,356.851 334.732,358.785 
	330.965,356.722 331.619,360.967 328.494,363.91 332.732,364.602 "/>
<polygon fill="#E9EAEB" points="324.567,351.483 326.533,347.666 330.792,347.12 327.769,344.071 328.566,339.851 324.732,341.785 
	320.965,339.722 321.619,343.967 318.494,346.91 322.732,347.602 "/>
<polygon fill="#E9EAEB" points="494.74,382.214 492.775,378.396 488.516,377.851 491.539,374.803 490.742,370.582 494.575,372.516 
	498.342,370.453 497.688,374.697 500.813,377.642 496.574,378.332 "/>
<polygon fill="#E9EAEB" points="478.74,394.214 476.775,390.396 472.516,389.851 475.539,386.803 474.742,382.582 478.575,384.516 
	482.342,382.453 481.688,386.697 484.813,389.642 480.574,390.332 "/>
<polygon fill="#E9EAEB" points="460.719,402.46 458.754,398.643 454.494,398.096 457.518,395.047 456.72,390.827 460.555,392.762 
	464.32,390.697 463.667,394.943 466.793,397.887 462.554,398.577 "/>
<polygon fill="#E9EAEB" points="507.916,368.483 505.951,364.666 501.691,364.12 504.715,361.071 503.917,356.851 507.752,358.785 
	511.518,356.722 510.865,360.967 513.989,363.91 509.751,364.602 "/>
<polygon fill="#E9EAEB" points="517.916,351.483 515.951,347.666 511.691,347.12 514.715,344.071 513.917,339.851 517.752,341.785 
	521.518,339.722 520.865,343.967 523.989,346.91 519.751,347.602 "/>
<polygon fill="#7BB4CE" points="271.5,333.49 303.667,332.666 301,320 298.236,319.59 298.236,300.109 298.236,296.925 
	271.5,296.925 274.646,300.109 290.351,316.004 274.808,330.107 "/>
<polygon fill="#85C4E7" points="298.237,280.706 298.237,284.87 298.237,317.367 298.237,321.859 362.366,321.859 487.265,321.859 
	543.764,321.859 543.764,317.367 543.764,284.87 543.764,280.706 487.265,280.706 362.366,280.706 "/>
<text transform="matrix(1 0 0 1 332.8652 315.5957)" fill="#F7FCF9" font-family="'EurostileRegular'" font-size="43.5628">SPARKLE</text>
<polygon fill="#787878" points="298.237,321.576 302.333,327.667 301.284,321.702 "/>
<polygon fill="#787878" points="543.764,321.859 539.707,327.224 540.858,321.793 "/>
<path fill="#9E9E9E" d="M390.241,240.333c0,0-1.144,11.212,5.721,14.873c6.864,3.662,16.933,4.577,24.026,4.119
	c7.094-0.458,21.052-0.229,25.628-9.61c4.577-9.382,2.06-12.357,2.06-12.357s-14.188-6.964-29.747-6.709
	C403.97,230.878,390.241,240.333,390.241,240.333z"/>
<g>
	<path fill="none" d="M341.763,310.092c0,42.939,34.81,77.746,77.75,77.746s77.75-34.807,77.75-77.746"/>
	<text transform="matrix(0.3811 0.9245 -0.9245 0.3811 346.4556 336.9248)"><tspan x="0" y="0" fill="#F7FCF9" font-family="'EurostileRegular'" font-size="24"> </tspan><tspan x="8.289" y="-0.123" fill="#F7FCF9" font-family="'EurostileRegular'" font-size="24" rotate="-6.134"> </tspan><tspan x="16.521" y="-1.132" fill="#F7FCF9" font-family="'EurostileRegular'" font-size="24" rotate="-12.244"> </tspan><tspan x="24.6" y="-3.01" fill="#F7FCF9" font-family="'EurostileRegular'" font-size="24" rotate="-18.33"> </tspan><tspan x="32.421" y="-5.729" fill="#F7FCF9" font-family="'EurostileRegular'" font-size="24" rotate="-24.393"> </tspan><tspan x="40.56" y="-9.333" fill="#F7FCF9" font-family="'EurostileRegular'" font-size="24" rotate="-33.73">V</tspan><tspan x="53.97" y="-18.959" fill="#F7FCF9" font-family="'EurostileRegular'" font-size="24" rotate="-42.659">I</tspan><tspan x="60.01" y="-24.18" fill="#F7FCF9" font-family="'EurostileRegular'" font-size="24" rotate="-52.926">N</tspan><tspan x="71.847" y="-41.017" fill="#F7FCF9" font-family="'EurostileRegular'" font-size="24" rotate="-66.671">C</tspan><tspan x="78.292" y="-57.333" fill="#F7FCF9" font-family="'EurostileRegular'" font-size="24" rotate="-79.142">E</tspan><tspan x="81.084" y="-72.674" fill="#F7FCF9" font-family="'EurostileRegular'" font-size="24" rotate="-92.432">N</tspan><tspan x="79.545" y="-92.928" fill="#F7FCF9" font-family="'EurostileRegular'" font-size="24" rotate="-105.784">T</tspan></text>
</g>
<rect x="415.091" y="336.713" fill="#9A9B9B" width="11.956" height="7.451"/>
<rect x="269.5" y="173" fill="#F31E2C" width="302.5" height="250"/>
<circle fill="#F7FCF9" cx="420.5" cy="298.5" r="120.5"/>
<polygon fill="#7BB4CE" points="551.148,316.254 566.852,300.359 570,297.175 543.264,297.175 543.264,300.359 543.334,319.666 
	541.499,319.584 538.25,333.416 570,333.74 566.691,330.357 "/>
<circle fill="none" stroke="#9E9E9E" stroke-width="3" stroke-miterlimit="10" cx="421" cy="298" r="120.833"/>
<circle fill="#9E9E9E" cx="421" cy="298" r="116"/>
<circle fill="#7BB4CE" cx="421" cy="298" r="98.333"/>
<circle fill="#F7FCF9" cx="421" cy="298" r="65.333"/>
<polygon fill="#E9EAEB" points="335,294.53 337.18,298.947 342.054,299.656 338.527,303.094 339.36,307.949 335,305.656 
	330.64,307.949 331.473,303.094 327.946,299.656 332.82,298.947 "/>
<polygon fill="#E9EAEB" points="508,294.53 510.18,298.947 515.055,299.656 511.527,303.094 512.359,307.949 508,305.656 
	503.641,307.949 504.473,303.094 500.945,299.656 505.82,298.947 "/>
<g>
	<path fill="#F7FCF9" d="M361.657,239.097l-0.993,1.037c-0.493-0.473-0.895-0.667-1.205-0.58s-0.862,0.544-1.657,1.373
		c-0.738,0.77-1.143,1.319-1.216,1.647c-0.073,0.328,0.13,0.721,0.609,1.18c0.726,0.695,1.439,0.711,2.14,0.049l0.846-0.794
		l1.066-1.009c1.294-1.222,2.58-1.22,3.858,0.005c0.795,0.762,1.137,1.497,1.026,2.205c-0.111,0.708-0.708,1.627-1.791,2.757
		c-1.112,1.16-2.018,1.823-2.717,1.991c-0.7,0.167-1.425-0.109-2.175-0.828l-0.378-0.376l1.029-1.074l0.34,0.312
		c0.464,0.445,0.887,0.623,1.27,0.535c0.383-0.088,0.907-0.48,1.574-1.176c0.818-0.854,1.275-1.493,1.37-1.918
		c0.095-0.425-0.117-0.886-0.635-1.383c-0.745-0.714-1.442-0.733-2.09-0.057c-1.509,1.574-2.634,2.482-3.376,2.723
		c-0.742,0.24-1.532-0.042-2.372-0.846c-0.794-0.761-1.136-1.465-1.023-2.11c0.112-0.645,0.729-1.553,1.849-2.723
		c1.797-1.875,3.261-2.271,4.392-1.188L361.657,239.097z"/>
	<path fill="#F7FCF9" d="M361.018,230.649l3.377,4.219l0.037-0.003c-0.29-0.941,0.214-1.931,1.511-2.969
		c1.921-1.538,3.565-1.453,4.933,0.255l0.25,0.312l3.915,4.891l-1.121,0.897l-3.916-4.891l-0.173-0.216
		c-0.923-1.153-1.974-1.257-3.153-0.313c-0.95,0.76-1.449,1.438-1.498,2.033s0.33,1.397,1.138,2.406l3.447,4.307l-1.121,0.897
		l-8.747-10.927L361.018,230.649z"/>
	<path fill="#F7FCF9" d="M370.944,223.339l0.881,1.348l-1.202,0.786l-0.881-1.348L370.944,223.339z M373.24,226.849l5.365,8.204
		l-1.201,0.786l-5.365-8.204L373.24,226.849z"/>
	<path fill="#F7FCF9" d="M376.264,224.881l1.226-0.644l0.583,1.2l0.05,0.008c-0.08-1.093,0.649-2.043,2.187-2.85
		c1.241-0.651,2.195-0.874,2.863-0.668s1.325,0.926,1.973,2.161l2.963,5.648l-1.271,0.667l-2.906-5.539l-0.171-0.327
		c-0.391-0.745-0.796-1.171-1.215-1.279s-1.035,0.051-1.846,0.477c-1.786,0.937-2.235,2.25-1.349,3.938l2.74,5.221l-1.271,0.667
		L376.264,224.881z"/>
	<path fill="#F7FCF9" d="M395.949,223.571l1.379-0.498l0.131,0.334c0.346,0.958,0.296,1.733-0.148,2.326
		c-0.444,0.593-1.396,1.152-2.855,1.678c-1.698,0.612-2.924,0.704-3.678,0.274c-0.754-0.429-1.49-1.638-2.206-3.625
		c-0.663-1.839-0.841-3.17-0.535-3.993c0.307-0.822,1.238-1.514,2.794-2.075c1.698-0.612,2.909-0.74,3.633-0.383
		c0.724,0.356,1.403,1.413,2.036,3.168l0.261,0.723l-6.636,2.393c0.524,1.454,1.014,2.323,1.469,2.609
		c0.456,0.287,1.256,0.223,2.4-0.189c1.087-0.392,1.758-0.741,2.015-1.048s0.271-0.775,0.044-1.406L395.949,223.571z
		 M395.003,220.947l-0.166-0.431c-0.359-0.997-0.757-1.585-1.193-1.766c-0.436-0.181-1.197-0.075-2.284,0.316
		c-1.093,0.394-1.739,0.825-1.938,1.292c-0.198,0.468-0.084,1.293,0.342,2.476L395.003,220.947z"/>
	<path fill="#F7FCF9" d="M414.628,216.652l1.548-0.178l0.052,0.366l0.091,0.702c0.085,0.74,0.106,1.405,0.064,1.995l2.666,1.727
		l-0.73,1.188l-2.253-1.464c-0.436,1.296-1.92,2.089-4.453,2.381c-2.445,0.282-4.055,0.192-4.831-0.27
		c-0.776-0.461-1.271-1.625-1.486-3.493c-0.142-1.229-0.076-2.107,0.197-2.634s0.877-0.943,1.812-1.251
		c0.086-0.03,0.222-0.077,0.407-0.14c-0.924-0.609-1.438-1.373-1.543-2.289c-0.149-1.297,0.039-2.215,0.565-2.754
		s1.587-0.9,3.183-1.084c1.562-0.18,2.655-0.071,3.278,0.325c0.624,0.396,1.008,1.226,1.154,2.489l0.079,0.868l-1.538,0.177
		l-0.06-0.52c-0.119-1.032-0.332-1.658-0.64-1.877c-0.307-0.219-1.035-0.263-2.183-0.13c-1.039,0.12-1.715,0.311-2.029,0.574
		c-0.314,0.263-0.431,0.738-0.353,1.423c0.089,0.774,0.456,1.358,1.1,1.752l0.379,0.246l5.738,3.757l-0.033-0.285l-0.066-0.57
		l-0.082-0.713L414.628,216.652z M408.788,216.312c-1.026,0.352-1.646,0.697-1.857,1.034c-0.212,0.338-0.256,1.046-0.132,2.126
		c0.163,1.413,0.467,2.253,0.915,2.522c0.447,0.268,1.598,0.296,3.452,0.083c2.221-0.256,3.41-0.895,3.567-1.917L408.788,216.312z"
		/>
	<path fill="#F7FCF9" d="M427.074,212.978l1.426,0.163l-0.213,1.225l0.037,0.035c0.604-0.88,1.723-1.227,3.36-1.04
		c1.446,0.166,2.399,0.646,2.858,1.441c0.46,0.796,0.577,2.178,0.352,4.148c-0.209,1.827-0.629,3.064-1.26,3.71
		c-0.631,0.647-1.65,0.89-3.056,0.729c-1.603-0.184-2.613-0.736-3.03-1.657l-0.031-0.003l-0.609,5.328l-1.426-0.163L427.074,212.978
		z M431.152,214.497c-1.142-0.13-1.913,0.031-2.316,0.483c-0.402,0.453-0.696,1.491-0.882,3.114
		c-0.171,1.501-0.099,2.522,0.218,3.064c0.316,0.542,1.038,0.877,2.166,1.006c1.072,0.123,1.809-0.037,2.206-0.48
		c0.397-0.443,0.684-1.418,0.856-2.926c0.189-1.657,0.145-2.749-0.132-3.276C432.992,214.955,432.286,214.627,431.152,214.497z"/>
	<path fill="#F7FCF9" d="M439.102,214.678l1.396,0.336l-0.403,1.063l0.021,0.037c0.769-0.764,1.787-0.993,3.057-0.687
		c1.754,0.423,2.414,1.538,1.978,3.346l-0.169,0.656l-1.375-0.332l0.088-0.232c0.08-0.248,0.131-0.415,0.152-0.501
		c0.235-0.977-0.179-1.594-1.242-1.85c-1.555-0.375-2.564,0.398-3.027,2.318l-1.377,5.712l-1.396-0.337L439.102,214.678z"/>
	<path fill="#F7FCF9" d="M452.164,218.362c1.695,0.637,2.686,1.345,2.971,2.124c0.283,0.779,0.056,2.153-0.686,4.125
		c-0.74,1.971-1.475,3.156-2.201,3.554c-0.727,0.399-1.938,0.28-3.633-0.357c-1.689-0.635-2.677-1.342-2.961-2.121
		c-0.284-0.778-0.057-2.153,0.685-4.124c0.741-1.971,1.474-3.156,2.201-3.555C449.267,217.61,450.475,217.728,452.164,218.362z
		 M451.746,219.476c-1.19-0.447-2.001-0.531-2.432-0.251c-0.43,0.28-0.951,1.236-1.564,2.868c-0.613,1.631-0.85,2.694-0.711,3.188
		c0.139,0.495,0.805,0.965,1.994,1.412c1.197,0.45,2.01,0.535,2.44,0.254c0.431-0.28,0.952-1.236,1.565-2.868
		s0.85-2.695,0.711-3.189C453.61,220.397,452.942,219.926,451.746,219.476z"/>
	<path fill="#F7FCF9" d="M464.919,227.391l-1.266-0.678c0.323-0.603,0.4-1.042,0.233-1.317c-0.166-0.275-0.756-0.684-1.768-1.226
		c-0.94-0.503-1.578-0.746-1.914-0.728c-0.335,0.019-0.659,0.32-0.973,0.904c-0.475,0.886-0.297,1.578,0.529,2.075l0.992,0.601
		l1.26,0.755c1.524,0.917,1.869,2.156,1.033,3.717c-0.52,0.97-1.135,1.497-1.847,1.582c-0.712,0.084-1.759-0.244-3.138-0.982
		c-1.416-0.758-2.299-1.452-2.648-2.081c-0.35-0.629-0.279-1.401,0.211-2.317l0.261-0.465l1.312,0.702l-0.209,0.412
		c-0.304,0.566-0.361,1.022-0.174,1.367s0.706,0.745,1.557,1.2c1.042,0.558,1.781,0.826,2.216,0.803s0.821-0.351,1.161-0.983
		c0.486-0.91,0.317-1.586-0.508-2.028c-1.923-1.029-3.1-1.869-3.531-2.519s-0.373-1.487,0.176-2.511
		c0.52-0.97,1.105-1.488,1.757-1.554s1.691,0.283,3.12,1.048c2.289,1.226,3.065,2.529,2.326,3.909L464.919,227.391z"/>
	<path fill="#F7FCF9" d="M469.27,227.073l1.165,0.838l-0.782,0.965l0.016,0.049c0.955-0.475,2.102-0.231,3.439,0.731
		c1.183,0.85,1.779,1.734,1.793,2.653c0.014,0.919-0.559,2.183-1.717,3.792c-1.073,1.493-2.043,2.368-2.91,2.625
		c-0.866,0.257-1.874-0.028-3.023-0.854c-1.309-0.942-1.922-1.917-1.836-2.925l-0.025-0.018l-3.131,4.354l-1.166-0.838
		L469.27,227.073z M472.088,230.389c-0.932-0.67-1.684-0.906-2.256-0.707c-0.573,0.199-1.336,0.961-2.29,2.288
		c-0.882,1.227-1.317,2.154-1.305,2.781c0.012,0.627,0.479,1.272,1.399,1.935c0.877,0.631,1.598,0.85,2.161,0.657
		s1.288-0.905,2.175-2.137c0.973-1.354,1.468-2.329,1.483-2.924C473.471,231.686,473.016,231.055,472.088,230.389z"/>
	<path fill="#F7FCF9" d="M479.153,243.986l1.065,1.008l-0.24,0.268c-0.7,0.74-1.415,1.044-2.144,0.914
		c-0.729-0.13-1.657-0.729-2.783-1.795c-1.311-1.241-1.944-2.295-1.899-3.162c0.044-0.867,0.793-2.067,2.244-3.601
		c1.345-1.419,2.453-2.177,3.326-2.274c0.873-0.096,1.909,0.424,3.11,1.562c1.311,1.241,1.97,2.265,1.978,3.072
		c0.007,0.808-0.631,1.889-1.914,3.244l-0.529,0.559l-5.122-4.851c-1.062,1.122-1.619,1.95-1.669,2.486
		c-0.051,0.536,0.365,1.222,1.248,2.059c0.84,0.794,1.453,1.237,1.843,1.328c0.39,0.091,0.813-0.106,1.274-0.593L479.153,243.986z
		 M481.071,241.961l0.31-0.342c0.729-0.769,1.076-1.389,1.041-1.86c-0.034-0.47-0.471-1.103-1.311-1.897
		c-0.844-0.799-1.519-1.182-2.025-1.149c-0.507,0.033-1.192,0.506-2.058,1.419L481.071,241.961z"/>
	<path fill="#F7FCF9" d="M487.383,242.79l0.916,1.105l-0.961,0.609l-0.004,0.043c1.072-0.152,2.025,0.275,2.858,1.281
		c1.151,1.39,1.011,2.678-0.421,3.864l-0.527,0.424l-0.902-1.09l0.209-0.133c0.213-0.15,0.354-0.253,0.422-0.31
		c0.773-0.641,0.812-1.383,0.114-2.225c-1.021-1.232-2.292-1.218-3.813,0.042l-4.523,3.749l-0.916-1.105L487.383,242.79z"/>
</g>
<polygon fill="#E9EAEB" points="347.743,212.968 349.708,216.785 353.968,217.331 350.944,220.379 351.742,224.6 347.908,222.666 
	344.142,224.729 344.795,220.484 341.67,217.54 345.909,216.85 "/>
<polygon fill="#E9EAEB" points="363.743,200.968 365.708,204.785 369.968,205.331 366.944,208.379 367.742,212.6 363.908,210.666 
	360.142,212.729 360.795,208.484 357.67,205.54 361.909,204.85 "/>
<polygon fill="#E9EAEB" points="381.764,192.722 383.729,196.54 387.989,197.085 384.966,200.134 385.764,204.354 381.929,202.42 
	378.163,204.484 378.816,200.239 375.691,197.294 379.93,196.604 "/>
<polygon fill="#E9EAEB" points="400.764,185.722 402.729,189.54 406.989,190.085 403.966,193.134 404.764,197.354 400.929,195.42 
	397.163,197.484 397.816,193.239 394.691,190.294 398.93,189.604 "/>
<polygon fill="#E9EAEB" points="420.764,183.722 422.729,187.54 426.989,188.085 423.966,191.134 424.764,195.354 420.929,193.42 
	417.163,195.484 417.816,191.239 414.691,188.294 418.93,187.604 "/>
<polygon fill="#E9EAEB" points="441.764,185.722 443.729,189.54 447.989,190.085 444.966,193.134 445.764,197.354 441.93,195.42 
	438.162,197.484 438.816,193.239 435.691,190.294 439.93,189.604 "/>
<polygon fill="#E9EAEB" points="334.567,226.698 336.533,230.516 340.792,231.062 337.769,234.11 338.566,238.331 334.732,236.396 
	330.965,238.46 331.619,234.215 328.494,231.271 332.732,230.581 "/>
<polygon fill="#E9EAEB" points="324.567,243.698 326.533,247.516 330.792,248.062 327.769,251.11 328.566,255.331 324.732,253.396 
	320.965,255.46 321.619,251.215 318.494,248.271 322.732,247.581 "/>
<polygon fill="#E9EAEB" points="317.567,263.698 319.533,267.516 323.792,268.062 320.769,271.11 321.566,275.331 317.732,273.396 
	313.965,275.46 314.619,271.215 311.494,268.271 315.732,267.581 "/>
<polygon fill="#E9EAEB" points="494.74,212.968 492.775,216.785 488.516,217.331 491.539,220.379 490.742,224.6 494.575,222.666 
	498.342,224.729 497.688,220.484 500.813,217.54 496.574,216.85 "/>
<polygon fill="#E9EAEB" points="478.74,200.968 476.775,204.785 472.516,205.331 475.539,208.379 474.742,212.6 478.575,210.666 
	482.342,212.729 481.688,208.484 484.813,205.54 480.574,204.85 "/>
<polygon fill="#E9EAEB" points="460.719,192.722 458.754,196.54 454.494,197.085 457.518,200.134 456.72,204.354 460.555,202.42 
	464.32,204.484 463.667,200.239 466.793,197.294 462.554,196.604 "/>
<polygon fill="#E9EAEB" points="507.916,226.698 505.951,230.516 501.691,231.062 504.715,234.11 503.917,238.331 507.752,236.396 
	511.518,238.46 510.865,234.215 513.989,231.271 509.751,230.581 "/>
<polygon fill="#E9EAEB" points="517.916,243.698 515.951,247.516 511.691,248.062 514.715,251.11 513.917,255.331 517.752,253.396 
	521.518,255.46 520.865,251.215 523.989,248.271 519.751,247.581 "/>
<polygon fill="#E9EAEB" points="524.916,263.698 522.951,267.516 518.691,268.062 521.715,271.11 520.917,275.331 524.752,273.396 
	528.518,275.46 527.865,271.215 530.989,268.271 526.751,267.581 "/>
<polygon fill="#E9EAEB" points="347.743,382.214 349.708,378.396 353.968,377.851 350.944,374.803 351.742,370.582 347.908,372.516 
	344.142,370.453 344.795,374.697 341.67,377.642 345.909,378.332 "/>
<polygon fill="#E9EAEB" points="363.743,394.214 365.708,390.396 369.968,389.851 366.944,386.803 367.742,382.582 363.908,384.516 
	360.142,382.453 360.795,386.697 357.67,389.642 361.909,390.332 "/>
<polygon fill="#E9EAEB" points="381.764,402.46 383.729,398.643 387.989,398.096 384.966,395.047 385.764,390.827 381.929,392.762 
	378.163,390.697 378.816,394.943 375.691,397.887 379.93,398.577 "/>
<polygon fill="#E9EAEB" points="400.764,409.46 402.729,405.643 406.989,405.096 403.966,402.047 404.764,397.827 400.929,399.762 
	397.163,397.697 397.816,401.943 394.691,404.887 398.93,405.577 "/>
<polygon fill="#E9EAEB" points="420.764,411.46 422.729,407.643 426.989,407.096 423.966,404.047 424.764,399.827 420.929,401.762 
	417.163,399.697 417.816,403.943 414.691,406.887 418.93,407.577 "/>
<polygon fill="#E9EAEB" points="441.764,409.46 443.729,405.643 447.989,405.096 444.966,402.047 445.764,397.827 441.93,399.762 
	438.162,397.697 438.816,401.943 435.691,404.887 439.93,405.577 "/>
<polygon fill="#E9EAEB" points="334.567,368.483 336.533,364.666 340.792,364.12 337.769,361.071 338.566,356.851 334.732,358.785 
	330.965,356.722 331.619,360.967 328.494,363.91 332.732,364.602 "/>
<polygon fill="#E9EAEB" points="324.567,351.483 326.533,347.666 330.792,347.12 327.769,344.071 328.566,339.851 324.732,341.785 
	320.965,339.722 321.619,343.967 318.494,346.91 322.732,347.602 "/>
<polygon fill="#E9EAEB" points="494.74,382.214 492.775,378.396 488.516,377.851 491.539,374.803 490.742,370.582 494.575,372.516 
	498.342,370.453 497.688,374.697 500.813,377.642 496.574,378.332 "/>
<polygon fill="#E9EAEB" points="478.74,394.214 476.775,390.396 472.516,389.851 475.539,386.803 474.742,382.582 478.575,384.516 
	482.342,382.453 481.688,386.697 484.813,389.642 480.574,390.332 "/>
<polygon fill="#E9EAEB" points="460.719,402.46 458.754,398.643 454.494,398.096 457.518,395.047 456.72,390.827 460.555,392.762 
	464.32,390.697 463.667,394.943 466.793,397.887 462.554,398.577 "/>
<polygon fill="#E9EAEB" points="507.916,368.483 505.951,364.666 501.691,364.12 504.715,361.071 503.917,356.851 507.752,358.785 
	511.518,356.722 510.865,360.967 513.989,363.91 509.751,364.602 "/>
<polygon fill="#E9EAEB" points="517.916,351.483 515.951,347.666 511.691,347.12 514.715,344.071 513.917,339.851 517.752,341.785 
	521.518,339.722 520.865,343.967 523.989,346.91 519.751,347.602 "/>
<polygon fill="#7BB4CE" points="271.5,333.49 303.667,332.666 301,320 298.236,319.59 298.236,300.109 298.236,296.925 
	271.5,296.925 274.646,300.109 290.351,316.004 274.808,330.107 "/>
<polygon fill="#85C4E7" points="298.237,280.706 298.237,284.87 298.237,317.367 298.237,321.859 362.366,321.859 487.265,321.859 
	543.764,321.859 543.764,317.367 543.764,284.87 543.764,280.706 487.265,280.706 362.366,280.706 "/>
<g>
	<path fill="#F7FCF9" d="M355.54,294.432h-3.254c0-2.34-0.39-3.825-1.17-4.456c-0.78-0.631-2.616-0.947-5.509-0.947
		c-3.432,0-5.644,0.301-6.636,0.904c-0.993,0.603-1.489,1.946-1.489,4.031c0,2.34,0.39,3.765,1.17,4.275
		c0.78,0.51,3.098,0.858,6.956,1.042c4.523,0.199,7.398,0.773,8.625,1.723c1.226,0.951,1.84,3.078,1.84,6.382
		c0,3.573-0.706,5.885-2.117,6.935c-1.411,1.049-4.527,1.574-9.348,1.574c-4.184,0-6.966-0.529-8.349-1.586
		c-1.382-1.056-2.074-3.186-2.074-6.391l-0.021-1.298h3.254v0.724c0,2.594,0.397,4.207,1.191,4.838
		c0.794,0.632,2.829,0.947,6.104,0.947c3.758,0,6.069-0.315,6.935-0.947c0.865-0.631,1.297-2.314,1.297-5.051
		c0-1.773-0.294-2.953-0.883-3.542s-1.818-0.939-3.69-1.054l-3.403-0.17l-3.233-0.17c-4.921-0.34-7.381-2.893-7.381-7.657
		c0-3.304,0.716-5.509,2.148-6.615s4.29-1.659,8.572-1.659c4.339,0,7.168,0.514,8.487,1.542
		C354.88,288.834,355.54,291.042,355.54,294.432z"/>
	<path fill="#F7FCF9" d="M360.007,315.596v-29.034h12.188h1.106c3.276,0,5.509,0.631,6.7,1.893c1.191,1.262,1.787,3.624,1.787,7.083
		c0,3.318-0.62,5.581-1.861,6.786c-1.241,1.206-3.57,1.808-6.988,1.808l-1.276,0.021h-8.381v11.443H360.007z M363.283,301.387h7.764
		c3.247,0,5.329-0.332,6.243-0.999s1.372-2.198,1.372-4.595c0-2.808-0.309-4.584-0.925-5.328c-0.617-0.745-2.082-1.117-4.393-1.117
		l-1.255-0.021h-8.806V301.387z"/>
	<path fill="#F7FCF9" d="M403.548,309.449H388.85l-2.233,6.146h-3.467l10.635-29.034h4.595l10.848,29.034h-3.425L403.548,309.449z
		 M402.591,306.981l-6.445-17.74l-6.36,17.74H402.591z"/>
	<path fill="#F7FCF9" d="M412.206,315.596v-29.034h13.826c3.12,0,5.318,0.617,6.594,1.851c1.277,1.233,1.915,3.375,1.915,6.424
		c0,2.68-0.348,4.549-1.042,5.605c-0.695,1.056-2.021,1.74-3.979,2.052v0.063c3.078,0.228,4.616,2.1,4.616,5.616v7.423h-3.275
		v-6.679c0-3.389-1.468-5.083-4.403-5.083h-1.084h-9.892v11.762H412.206z M415.481,301.068h9.466c2.495,0,4.197-0.379,5.104-1.139
		c0.907-0.758,1.361-2.187,1.361-4.286c0-2.623-0.337-4.332-1.011-5.126c-0.674-0.794-2.115-1.191-4.328-1.191h-10.593V301.068z"/>
	<path fill="#F7FCF9" d="M442.623,286.562v12.677h2.871l11.912-12.677h4.232l-13.272,13.996l14.89,15.038h-4.488l-13.273-13.592
		h-2.871v13.592h-3.275v-29.034H442.623z"/>
	<path fill="#F7FCF9" d="M468.893,286.562v25.993h14.932v3.041h-18.207v-29.034H468.893z"/>
	<path fill="#F7FCF9" d="M488.845,289.327v9.891h14.741v2.765h-14.741v10.849h15.379v2.765h-18.655v-29.034h18.655v2.765H488.845z"
		/>
</g>
<polygon fill="#787878" points="298.237,321.576 302.333,327.667 301.284,321.702 "/>
<polygon fill="#787878" points="543.764,321.859 539.707,327.224 540.858,321.793 "/>
<path fill="#9E9E9E" d="M390.241,240.333c0,0-1.144,11.212,5.721,14.873c6.864,3.662,16.933,4.577,24.026,4.119
	c7.094-0.458,21.052-0.229,25.628-9.61c4.577-9.382,2.06-12.357,2.06-12.357s-14.188-6.964-29.747-6.709
	C403.97,230.878,390.241,240.333,390.241,240.333z"/>
<g>
	<g>
		<path fill="#F7FCF9" d="M387.403,372.076l6.093,3.142c-0.162,0.382-0.415,0.907-0.758,1.573c-1.321,2.562-2.453,3.985-3.394,4.27
			c-0.942,0.283-2.739-0.259-5.392-1.627c-2.507-1.292-3.933-2.482-4.277-3.569c-0.345-1.087,0.129-2.884,1.421-5.392l1.069-2.099
			l0.66-1.255c1.085-2.104,2.204-3.299,3.357-3.582c1.153-0.285,2.934,0.193,5.344,1.436c2.417,1.246,3.858,2.277,4.325,3.094
			s0.294,2.013-0.519,3.589l-0.279,0.542l-1.573-0.811l0.183-0.354c0.598-1.159,0.729-1.999,0.395-2.519
			c-0.334-0.52-1.505-1.297-3.511-2.332c-1.854-0.955-3.127-1.332-3.82-1.132c-0.692,0.201-1.493,1.184-2.403,2.947l-0.993,1.874
			l-1.037,2.037c-0.924,1.791-1.232,3.025-0.926,3.702c0.306,0.677,1.581,1.593,3.823,2.749c1.715,0.885,2.876,1.236,3.483,1.057
			c0.607-0.179,1.334-1.092,2.183-2.737c0.068-0.132,0.191-0.438,0.368-0.918l-4.521-2.331L387.403,372.076z"/>
		<path fill="#F7FCF9" d="M409.788,371.255l1.757,0.411l-2.554,10.908c-0.463,1.979-1.165,3.184-2.105,3.617
			c-0.94,0.435-2.68,0.354-5.221-0.24c-2.381-0.559-3.93-1.235-4.646-2.033c-0.716-0.797-0.878-2.033-0.486-3.707l0.123-0.524
			l2.554-10.908l1.757,0.411l-2.554,10.908c-0.346,1.477-0.323,2.459,0.068,2.947c0.391,0.488,1.526,0.953,3.405,1.393
			c2.039,0.478,3.352,0.591,3.94,0.34c0.588-0.252,1.057-1.123,1.406-2.614L409.788,371.255z"/>
		<path fill="#F7FCF9" d="M416.637,371.784l-0.955,15.968l-1.802-0.107l0.955-15.968L416.637,371.784z"/>
		<path fill="#F7FCF9" d="M426.516,379.537l6.82-0.699c0.072,0.41,0.147,0.986,0.224,1.732c0.294,2.868,0.124,4.678-0.511,5.43
			c-0.633,0.753-2.435,1.281-5.403,1.584c-2.806,0.287-4.649,0.07-5.532-0.652c-0.883-0.723-1.468-2.486-1.755-5.293l-0.251-2.342
			l-0.133-1.411c-0.241-2.354,0.043-3.967,0.854-4.835c0.81-0.868,2.563-1.44,5.26-1.717c2.705-0.276,4.476-0.2,5.312,0.229
			c0.838,0.429,1.346,1.525,1.527,3.289l0.062,0.606l-1.761,0.181l-0.04-0.396c-0.133-1.299-0.481-2.074-1.045-2.326
			s-1.969-0.264-4.215-0.033c-2.075,0.211-3.349,0.592-3.817,1.139c-0.471,0.547-0.605,1.807-0.403,3.781l0.193,2.111l0.244,2.272
			c0.205,2.005,0.62,3.208,1.247,3.606c0.625,0.4,2.193,0.471,4.704,0.214c1.919-0.196,3.085-0.536,3.495-1.017
			c0.41-0.482,0.521-1.645,0.332-3.486c-0.016-0.147-0.08-0.471-0.193-0.97l-5.061,0.519L426.516,379.537z"/>
		<path fill="#F7FCF9" d="M444.816,366.628l1.697-0.614l3.814,10.533c0.692,1.91,0.763,3.303,0.212,4.18s-2.053,1.76-4.506,2.648
			c-2.3,0.832-3.966,1.109-5.002,0.832c-1.035-0.277-1.845-1.223-2.431-2.84l-0.184-0.506l-3.815-10.533l1.696-0.615l3.816,10.533
			c0.516,1.426,1.07,2.236,1.666,2.432c0.594,0.195,1.799-0.035,3.613-0.691c1.968-0.713,3.131-1.336,3.486-1.867
			c0.355-0.532,0.272-1.518-0.249-2.958L444.816,366.628z"/>
		<path fill="#F7FCF9" d="M450.846,363.326l7.932,13.891l-1.566,0.895l-7.932-13.891L450.846,363.326z"/>
	</g>
</g>
<rect x="415.091" y="336.713" fill="#9A9B9B" width="11.956" height="7.451"/>
</svg>
